-10.0, 4.298222423270023
-9.9, 5.74394434170165
-9.8, 8.434021429369084
-9.700000000000001, 14.537136832700728
-9.600000000000001, 33.90526097780797
-9.500000000000002, 178.06359282170393
-9.400000000000002, 1630.2264388800477
-9.300000000000002, 65.56262948466737
-9.200000000000003, 21.12755003335318
-9.100000000000003, 10.814643966897277
-9.000000000000004, 6.867812682047115
-8.900000000000004, 4.931581335677002
-8.800000000000004, 3.801750507391673
-8.700000000000005, 3.0118689870145827
-8.600000000000005, 2.299909723863259
-8.500000000000005, 1.4053950584561963
-8.400000000000006, -0.13782442743852724
-8.300000000000006, -3.5366371521958624
-8.200000000000006, -12.860865664547882
-8.100000000000007, -47.1960093620054
-8.000000000000007, -269.50867000552057
-7.9000000000000075, -9775.82774509471
-7.800000000000008, 6692.141453652711
-7.700000000000008, 314.2281636086116
-7.6000000000000085, 75.97120357343776
-7.500000000000009, 30.583757908506637
-7.400000000000009, 16.013785340385017
-7.30000000000001, 9.963398781224463
-7.20000000000001, 7.087352185308779
-7.10000000000001, 5.672394467008205
-7.000000000000011, 5.083533759765329
-6.900000000000011, 5.107979839413775
-6.800000000000011, 5.790420175812081
-6.700000000000012, 7.511576178778214
-6.600000000000012, 11.523722842485888
-6.500000000000012, 22.70739553210077
-6.400000000000013, 74.64518769433185
-6.300000000000013, 3538.2285748281297
-6.2000000000000135, 145.86237741820833
-6.100000000000014, 31.205071721526906
-6.000000000000014, 13.981418132995495
-5.900000000000015, 8.491500407711023
-5.800000000000015, 6.218843701772488
-5.700000000000015, 5.254227700399975
-5.600000000000016, 5.026149500143575
-5.500000000000016, 5.398740538011748
-5.400000000000016, 6.492615350231187
-5.300000000000017, 8.763040360974095
-5.200000000000017, 13.425775166262454
-5.100000000000017, 24.038415331247514
-5.000000000000018, 53.80142195888455
-4.900000000000018, 178.5438331209094
-4.8000000000000185, 1612.8876991661577
-4.700000000000019, -518814.0751909597
-4.600000000000019, -619.6911366932258
-4.5000000000000195, -78.47037789057875
-4.40000000000002, -19.503630507068216
-4.30000000000002, -5.620243397749402
-4.200000000000021, -0.969666673173216
-4.100000000000021, 0.9946051602922255
-4.000000000000021, 2.035632885574945
-3.9000000000000212, 2.7751834569014413
-3.800000000000021, 3.5130155743103755
-3.700000000000021, 4.492284644966797
-3.600000000000021, 6.078582840272586
-3.500000000000021, 9.117324146303748
-3.400000000000021, 16.31124032984966
-3.3000000000000207, 41.18661939258461
-3.2000000000000206, 294.466838816443
-3.1000000000000205, 579.4023793986071
-3.0000000000000204, 51.21381468285465
-2.9000000000000203, 18.468439823349833
-2.8000000000000203, 9.903555788489259
-2.70000000000002, 6.45107662686815
-2.60000000000002, 4.702589124067809
-2.50000000000002, 3.653456525952401
-2.40000000000002, 2.89295442033826
-2.30000000000002, 2.1708908885093
-2.2000000000000197, 1.2101065707094403
-2.1000000000000196, -0.5252819128598243
-2.0000000000000195, -4.488830901495854
-1.9000000000000195, -15.817230513383272
-1.8000000000000194, -60.43431142632681
-1.7000000000000193, -398.4945762371949
-1.6000000000000192, -38949.304372909275
-1.500000000000019, 3011.9103031252794
-1.400000000000019, 233.4444488187935
-1.300000000000019, 63.558710022908436
-1.2000000000000188, 27.025311528234866
-1.1000000000000187, 14.62973238261486
-1.0000000000000187, 9.32699174527672
-0.9000000000000187, 6.772346617578167
-0.8000000000000187, 5.525075998954566
-0.7000000000000187, 5.046569237389316
-0.6000000000000187, 5.171692720004444
-0.5000000000000188, 5.98920965979718
-0.4000000000000188, 7.967095102210858
-0.3000000000000188, 12.646379398038258
-0.2000000000000188, 26.419034849108858
-0.1000000000000188, 101.35418565844265
-1.8790524691780774E-14, 2.832188699893978E27
0.09999999999998122, 3.844618330950916E7
0.19999999999998122, 60973.744846669986
0.2999999999999812, 333.1267052687874
0.39999999999998126, 7.331508982629185
0.49999999999998124, 4.898093910715339
0.5999999999999812, 4.848214853334935
0.6999999999999812, 4.819317397094848
0.7999999999999812, 4.794341523636097
0.8999999999999811, 4.772311331311856
0.9999999999999811, 4.752604652772917
1.0999999999999812, 4.734777793601193
1.1999999999999813, 4.71850314626487
1.2999999999999814, 4.703531922393521
1.3999999999999815, 4.689670768820759
1.4999999999999816, 4.676767294327629
1.5999999999999817, 4.664709508858014
1.6999999999999817, 4.653484885144421
1.7999999999999818, 4.643479334203891
1.899999999999982, 4.636522298615228
1.999999999999982, 4.638800785920285
2.099999999999982, 4.667731385240013
2.199999999999982, 4.766187854190161
2.299999999999982, 5.0290599039942725
2.399999999999982, 5.648847972956661
2.4999999999999822, 6.98874211614894
2.5999999999999823, 9.693259354073557
2.6999999999999824, 14.847913975688282
2.7999999999999825, 24.200491277802563
2.8999999999999826, 40.45724149527839
2.9999999999999827, 67.66769140908026
3.0999999999999828, 111.71179490086296
3.199999999999983, 180.90283736570098
3.299999999999983, 286.71891141055136
3.399999999999983, 444.67493859879374
3.499999999999983, 675.3461727692926
3.599999999999983, 1005.5529327429791
3.6999999999999833, 1469.7150213215739
3.7999999999999834, 2111.382934435719
3.8999999999999835, 2984.9515851295314
3.9999999999999836, 4157.560892447076
4.099999999999984, 5711.186240568053
4.199999999999983, 7744.920519047717
4.299999999999983, 10377.448226456037
4.399999999999983, 13749.710968672776
4.499999999999982, 18027.762617590848
4.599999999999982, 23405.81142096911
4.6999999999999815, 30109.44547204791
4.799999999999981, 38399.03715863922
4.899999999999981, 48573.32151433426
4.9999999999999805, 60973.14278661238
5.09999999999998, 75985.36301426945
5.19999999999998, 94046.9259654028
5.299999999999979, 115649.06942224303
5.399999999999979, 141341.67850527304
5.499999999999979, 171737.7725009426
5.599999999999978, 207518.1174895461
5.699999999999978, 249435.95695702665
5.799999999999978, 298321.85251162306
5.899999999999977, 355088.62680820614
5.999999999999977, 420736.4008051206
6.0999999999999766, 496357.7175360271
6.199999999999976, 583142.7446680893
6.299999999999976, 682384.5482342052
6.3999999999999755, 795484.430067024
6.499999999999975, 923957.3216229419
6.599999999999975, 1069437.227061852
6.699999999999974, 1233682.708640459
6.799999999999974, 1418582.407681143
6.899999999999974, 1626160.5945914988
6.999999999999973, 1858582.7416306036
7.099999999999973, 2118161.1123447563
7.199999999999973, 2407360.3618250457
7.299999999999972, 2728803.1421722546
7.399999999999972, 3085275.7077876725
7.499999999999972, 3479733.515342247
7.599999999999971, 3915306.8135083895
7.699999999999971, 4395306.217768
7.7999999999999705, 4923228.265840402
7.89999999999997, 5502760.949492554
7.99999999999997, 6137789.218719204
8.09999999999997, 6832400.45449052
8.199999999999969, 7590889.906479303
8.299999999999969, 8417766.09237849
8.399999999999968, 9317756.15562769
8.499999999999968, 1.0295811178549793E7
8.599999999999968, 1.1357111448096912E7
8.699999999999967, 1.2507071671576487E7
8.799999999999967, 1.3751346139913144E7
8.899999999999967, 1.5095833836160364E7
8.999999999999966, 1.654668348715091E7
9.099999999999966, 1.8110298556318127E7
9.199999999999966, 1.9793342175885532E7
9.299999999999965, 2.1602742016755328E7
9.399999999999965, 2.3545695094568178E7
9.499999999999964, 2.562967251054674E7
9.599999999999964, 2.7862424125848014E7
9.699999999999964, 3.0251983168290913E7
9.799999999999963, 3.280667077042048E7
9.899999999999963, 3.5535100437996864E7
9.999999999999963, 3.8446182448098525E7
